<svg width="16" height="16" viewBox="0 0 16 16" fill="none" xmlns="http://www.w3.org/2000/svg">
<path d="M7.46641 0V3.2H3.73307V7.46667H7.46641V8.53333H1.06641V12.8H7.46641V16H8.53307V12.8H14.9331V8.53333H8.53307V7.46667H12.2664V3.2H8.53307V0H7.46641Z" fill="#1D1929"/>
</svg>
